{
  "list": [
    {
      "status": 1,
      "title": "COVID-19 Comparator",
      "description": "Coronavirus cases comparator by countries, from chosen date and number of days (PWA).",
      "country": "Global",
      "countryCode": "zz",
      "link": "https://covid-comparator.netlify.com/",
      "time": "27th March 2020",
      "category": "Dashboard"
    },
    {
      "status": 1,
      "title": "Coronavirus Italia",
      "description": "Dashboard about coronavirus situation in Italy based on official data from Dipartimento della Protezione Civile.",
      "country": "Italy",
      "countryCode": "it",
      "link": "https://datastudio.google.com/u/0/reporting/91350339-2c97-49b5-92b8-965996530f00",
      "time": "27th March 2020",
      "category": "Dashboard"
    },
    {
      "status": 1,
      "title": "Coronavirus World",
      "description": "Dashboard about Covid19 situation worldwide based on data by Johns Hopkins University.",
      "country": "Global",
      "countryCode": "zz",
      "link": "https://datastudio.google.com/u/0/reporting/2cadc3a5-99c7-4ac0-b3ce-78786cf2fa2a",
      "time": "27th March 2020",
      "category": "Dashboard"
    },
    {
      "status": 1,
      "title": "COVID-19 Italy Data",
      "description": "Official italian data from Dipartimento della Protezione Civile.",
      "country": "Italy",
      "countryCode": "it",
      "link": "https://github.com/pcm-dpc/COVID-19",
      "time": "27th March 2020",
      "category": "Data"
    },
    {
      "status": 1,
      "title": "Novel Coronavirus (COVID-19) Cases",
      "description": "Data repository for the 2019 Novel Coronavirus Visual Dashboard operated by the Johns Hopkins University Center.",
      "country": "Italy",
      "countryCode": "it",
      "link": "https://github.com/CSSEGISandData/COVID-19",
      "time": "27th March 2020",
      "category": "Data"
    },
    {
      "status": 1,
      "title": "COVID-19 Travel Restrictions",
      "description": "An interactive map showing countries with travel restrictions and infection counts.",
      "country": "Global",
      "countryCode": "zz",
      "link": "https://www.travelsignals.io/coronavirus-country-travel-bans/",
      "time": "28th March 2020",
      "category": "Dashboard"
    }
  ],
  "categories": [
    {
      "category": "Dashboard",
      "name": "dashboard"
    },
    {
      "category": "Data",
      "name": "data"
    }
  ]
}